90
6 11 14 39 68 73 42 -8 4 71 12 -10 -22 62 70 57 -4 13 95 64 88 65 21 29 100 56 60 -2 67 66 -19 85 23 76 27 -24 80 10 30 49 90 20 -17 -20 32 3 75 91 48 77 53 38 98 -14 -15 81 44 -5 2 59 19 -9 86 33 87 -7 -18 31 36 82 25 -3 -25 28 16 74 35 46 37 -21 5 51 0 -16 94 54 9 93 97 7 79
77 63 18 87 9 -1 69 -21 73 -13 26 -23 16 70 31 0 -4 24 28 7 -3 59 57 68 46 100 86 -17 -16 30 71 11 -24 84 32 12 -11 3 35 17 98 -6 -8 10 49 76 22 -9 78 -7 -10 29 67 72 23 27 54 -12 89 91 99 96 39 56 92 90 -22 55 -19 75 61 36 -18 81 6 50 37 14 62 83 80 15 66 60 38 43 47 74 4 95 51
40 83 65 -18 44 -2 -6 37 57 82 -15 70 -3 52 -4 34 19 97 60 56 12 85 15 -20 100 75 28 16 -11 59 62 21 9 2 24 -12 41 -5 53 32 79 93 -9 42 47 7 67 17 64 98 31 55 -17 61 89 36 39 11 71 3 76 10 30 91 -19 22 43 58 77 8 99 -10 14 18 -16 81 33 -21 49 72 35 -8 -13 80 69 68 0 45 4 84 38
69 -20 59 51 40 -24 63 64 23 6 -23 52 -16 36 10 60 61 44 -15 94 70 38 26 100 62 35 24 97 54 -2 20 82 12 -13 -19 5 98 30 66 78 33 7 -8 79 45 75 -1 11 13 43 96 8 -17 55 91 -12 -25 68 -21 4 48 46 72 39 83 81 18 14 31 80 47 34 29 1 65 -3 92 -10 -18 27 2 37 76 85 41 67 21 15 88 19 93
67 93 -24 -14 16 99 37 81 25 55 82 47 97 -22 -15 26 98 42 19 45 66 71 2 8 75 73 57 34 80 49 86 14 53 50 27 -4 65 9 88 35 38 89 46 -6 54 63 85 -20 -17 48 74 -12 20 29 79 1 22 -25 31 94 52 24 17 60 83 30 10 39 76 51 5 -1 32 -18 95 41 91 4 28 33 -5 64 11 -8 -21 62 12 7 -11 44 -3
-1 66 92 -4 90 -12 -14 9 82 56 58 30 97 37 95 -2 4 93 25 -9 1 -5 72 -16 13 12 60 8 62 42 87 18 86 34 44 -3 77 0 -20 61 -13 39 31 65 69 100 33 16 38 -22 48 3 94 73 -23 88 57 47 71 10 2 55 -21 29 54 40 79 68 53 52 43 22 91 83 35 -6 78 75 -10 20 80 26 41 50 49 63 6 -18 74 5 32
42 22 64 86 20 29 67 82 38 61 -15 44 92 18 -13 11 62 51 4 74 26 15 93 2 7 -5 34 50 71 12 85 17 -19 -6 1 89 8 53 81 -8 90 46 99 19 97 69 -2 9 35 -10 83 65 56 -25 80 13 54 33 -24 3 100 75 21 32 58 -16 -14 79 36 45 -4 39 -11 84 87 70 24 96 14 43 -3 6 -17 25 16 78 63 68 72 55 95
2 27 86 82 -20 29 61 -6 69 53 7 32 92 -13 81 8 100 15 21 97 96 42 -12 -9 12 99 58 38 91 78 -15 46 1 30 56 85 63 -8 -18 83 34 25 -25 -1 -19 5 -5 -4 3 64 48 51 49 50 13 62 -7 76 70 66 88 68 37 41 44 18 73 -3 26 55 71 87 -23 11 31 95 33 -22 28 80 94 -17 74 54 35 17 40 65 36 23 -11
47 52 88 -21 34 93 17 59 -8 83 33 82 54 -19 100 10 73 25 -14 19 39 53 -11 6 35 70 77 30 -16 -24 -7 -2 79 -15 51 -1 32 -18 21 37 -20 -22 48 64 68 67 80 16 71 -6 46 38 15 14 27 -23 24 -12 69 50 41 2 -4 56 9 0 43 36 5 -13 45 62 66 55 7 94 22 61 91 23 13 28 84 42 -25 31 58 -3 11 95 40
50 -12 57 73 44 -9 -13 36 -24 -11 67 64 48 34 66 -5 58 -6 49 23 75 99 60 41 8 10 45 52 79 84 35 1 -22 42 95 22 92 26 89 76 6 39 83 -25 16 53 74 -23 81 28 62 90 88 77 85 80 31 -1 4 51 56 55 12 59 46 15 -20 30 94 96 82 13 14 2 97 3 68 65 70 -2 -10 91 100 18 29 40 -14 9 17 72 -17
57 11 88 90 64 32 10 12 87 17 -18 1 53 80 79 98 8 37 -12 58 95 36 75 -25 51 89 45 38 22 86 62 73 -24 4 5 60 33 61 -7 16 35 93 15 42 -23 -19 -9 43 39 -15 50 97 67 54 20 55 76 -8 3 85 9 27 100 -2 25 69 68 31 47 23 14 -17 24 -10 91 66 26 -6 84 -13 92 -21 18 -11 34 96 81 2 59 7 82
38 32 -15 6 -14 65 36 -6 -2 -23 73 28 67 -8 69 47 4 52 95 30 97 20 9 50 2 92 33 -1 98 60 79 91 -16 89 -11 48 25 1 21 94 72 7 49 57 19 -9 53 -22 56 63 34 0 8 27 46 61 14 54 40 77 100 15 -4 71 -10 23 37 -5 35 90 58 29 -19 83 10 87 64 81 -20 -25 -7 -18 39 11 -3 85 70 26 45 82 -24
28 72 -8 -15 -19 -1 87 2 6 86 -24 46 -10 20 15 -23 3 -25 -4 98 77 60 13 62 -20 90 93 -2 79 71 100 30 38 37 10 29 89 7 64 -13 39 16 70 -7 94 40 74 61 63 27 99 83 17 -16 33 -14 66 53 51 68 -12 14 5 4 26 9 69 -9 49 52 36 48 91 97 75 23 12 1 58 80 54 0 32 21 22 8 65 11 -3 18 81
87 4 75 49 20 17 -1 91 10 -22 18 35 59 82 60 58 62 73 100 -15 13 -12 90 86 78 15 32 38 27 22 12 68 53 -8 50 -24 56 43 48 -14 9 66 40 -20 77 -11 99 63 -13 84 76 88 42 -4 2 29 57 3 74 19 -3 -9 -6 64 30 8 65 -17 85 5 28 24 -10 79 81 98 89 70 -19 46 45 37 36 21 51 69 61 -7 94 -18 14
95 -6 38 35 72 -20 78 23 -21 36 15 3 20 98 10 93 67 57 27 50 74 79 96 99 47 92 7 30 62 70 97 39 29 34 32 -2 24 75 13 -11 -7 66 54 21 100 -18 91 82 73 -13 17 -9 53 4 46 18 86 -23 -14 9 31 51 2 5 -22 -24 41 61 60 49 -4 19 16 56 25 -1 44 94 -10 6 87 81 28 84 65 52 58 68 55 26 80
95 20 2 26 13 -13 0 -6 82 61 91 51 55 29 -24 28 49 16 48 -15 90 50 66 83 -16 71 12 19 -18 -1 93 40 9 56 78 -22 99 62 -21 -19 10 3 15 96 -25 43 -9 80 37 -12 8 1 63 69 34 74 92 68 38 4 45 32 7 17 11 85 -14 100 35 98 46 14 67 30 21 76 44 53 57 41 87 81 89 25 52 -17 5 58 -10 42 77
50 -4 48 0 17 1 99 62 68 -11 10 81 78 40 79 90 6 71 89 61 41 58 96 30 72 20 9 45 82 11 -23 -19 93 -6 -20 -22 51 86 36 3 43 28 60 37 22 91 -24 -2 77 -1 -18 -17 -8 12 -7 31 5 87 2 75 59 54 69 42 18 49 84 -21 16 67 -14 95 56 63 53 26 80 94 65 -5 38 76 -10 34 -12 14 97 -15 66 15 55
45 33 -23 -11 98 13 3 69 10 2 -21 -10 81 94 28 -5 67 77 35 95 47 38 -16 -2 75 19 17 63 46 82 96 4 8 71 27 76 83 88 0 11 -8 78 14 97 53 -18 34 -3 91 58 61 -15 92 90 -17 -22 12 -20 100 39 36 57 41 -19 42 50 85 -1 23 89 72 5 18 25 -9 26 65 -13 22 -4 1 70 87 43 54 80 60 32 29 62 68
10 -14 -12 -8 -22 94 24 78 16 79 44 -23 3 -13 56 60 59 92 39 86 6 71 14 82 51 85 100 -25 -1 9 75 27 53 70 1 65 63 -4 46 15 12 36 64 74 62 37 88 -10 76 -7 95 35 -17 -9 91 96 72 11 47 34 54 52 -16 87 67 97 32 77 84 18 83 -19 -18 -21 50 20 29 5 55 40 28 41 89 4 21 45 23 43 57 49 69
-20 72 -3 7 40 8 71 82 77 55 36 -7 24 32 37 -22 1 27 51 14 35 -18 54 96 45 49 60 -4 -14 80 13 -10 92 50 95 5 33 59 41 -19 3 85 56 57 47 26 93 15 81 46 79 -2 -23 61 86 11 -12 34 29 68 0 10 74 2 42 65 -1 75 -9 88 66 19 52 69 12 31 30 23 -8 22 20 70 -13 -15 -25 44 9 -21 -16 62 25
74 17 62 53 98 21 70 86 58 -10 96 50 79 82 -25 -5 73 1 56 20 -12 63 25 35 9 100 89 65 19 18 -23 23 83 92 60 -4 67 77 -20 95 24 43 6 48 33 22 -11 5 28 -6 7 40 -1 36 -3 90 39 94 -13 84 85 44 32 -21 27 14 71 57 30 76 -2 -19 68 3 2 12 99 0 -8 34 51 31 93 72 16 29 46 11 52 13 75
-25 98 -12 75 18 6 -1 21 78 70 42 88 17 55 36 -24 16 -6 15 -5 -21 -9 41 100 -17 71 96 25 4 31 91 47 61 32 51 74 -4 38 -15 72 44 52 48 -16 -8 76 46 94 90 69 45 0 50 14 5 66 89 87 8 93 54 63 -10 -13 20 29 58 82 10 33 62 83 -3 67 59 73 53 9 23 79 12 -14 80 60 -18 7 64 -2 19 -22 35
16 9 11 51 56 33 79 -12 -7 22 35 -10 -11 32 97 37 88 -24 66 46 100 48 82 20 0 -18 34 -23 24 26 91 86 17 30 -16 25 99 50 -1 23 41 54 8 42 -15 94 -9 2 28 62 87 3 69 -17 38 -6 57 60 92 77 98 13 29 53 49 73 27 -13 72 85 83 76 89 44 -19 67 78 21 -21 -4 15 31 -20 4 -5 -2 36 -22 14 59 74
16 99 35 64 45 -1 75 51 100 33 20 -21 34 -18 30 92 71 -5 61 60 -11 13 -6 76 47 83 -22 86 73 -8 18 -4 15 97 11 78 80 41 22 50 44 -15 37 31 62 63 69 -14 74 17 77 89 -20 95 29 57 -13 43 -2 27 90 -25 28 -17 58 -9 81 66 -16 91 -24 21 -7 9 84 38 25 26 32 -19 42 59 19 85 1 48 67 36 94 4 70
-22 35 77 52 95 39 11 22 82 10 40 -17 49 71 53 -13 84 -16 62 32 59 56 -5 90 26 8 57 23 27 74 46 19 73 89 -20 29 70 85 36 25 15 3 9 67 2 41 5 72 -6 12 88 -11 -1 75 76 17 80 14 -24 -15 6 47 18 83 7 93 79 -9 66 99 -4 44 33 20 94 63 48 28 68 0 50 64 100 58 87 55 -12 -2 34 60 24
28 -14 74 -18 77 -23 -13 53 56 24 11 65 62 39 -1 73 87 61 55 22 8 52 64 -17 93 41 7 89 58 59 -9 97 35 -10 29 43 3 -2 37 86 100 14 -11 75 79 90 -19 83 98 0 25 40 15 45 -20 -25 54 23 42 10 21 16 84 78 46 33 57 51 99 -21 -3 -5 17 76 -16 91 12 71 26 88 49 20 31 30 2 5 85 96 -22 60 47
21 33 69 54 67 99 52 4 44 83 -8 92 59 45 70 -7 84 39 -12 95 87 17 24 55 77 20 93 75 89 72 16 90 26 80 7 23 36 51 -6 71 58 -17 -3 43 -24 76 48 65 -25 100 56 30 25 46 31 13 42 5 19 6 91 47 73 12 62 57 8 97 -4 2 38 64 3 -23 -5 60 50 94 32 -21 41 53 0 85 63 -10 14 74 78 9 22
-3 -1 98 93 79 31 -22 61 51 20 -8 48 -23 8 63 42 29 2 21 6 87 62 -12 96 67 16 56 32 23 -17 0 7 49 97 26 92 -15 99 10 70 73 58 -6 77 83 75 -25 -11 91 45 57 40 -13 43 50 -4 95 82 1 30 59 14 13 25 -19 66 9 19 34 84 44 69 53 5 18 71 89 94 54 -24 37 -2 3 39 72 81 22 85 41 36 55
90 86 26 91 45 -23 88 18 67 -20 54 6 -13 -24 73 99 25 94 8 9 74 79 76 41 -3 -18 40 71 77 78 92 56 -21 5 59 24 0 -15 30 37 62 58 -6 10 -2 72 81 1 44 11 -12 12 28 -1 15 53 17 -25 57 89 98 -8 35 47 100 -9 7 69 85 96 31 65 60 22 52 -22 48 61 97 20 80 70 -14 4 27 -4 42 21 -11 39 -19
44 93 81 36 48 52 29 1 59 56 26 40 70 71 -21 79 -16 97 15 73 66 -22 -12 82 22 50 12 23 30 75 95 33 65 83 14 13 -19 -25 -5 31 -23 92 99 7 77 9 74 85 2 24 64 41 45 63 80 100 60 5 -24 -6 -13 -14 37 19 32 46 20 96 72 6 8 88 69 84 16 18 -2 -9 3 51 89 53 43 27 55 76 -1 54 57 25 -18
42 -13 88 -2 97 39 -19 28 18 10 53 64 30 8 36 3 -20 93 -5 56 57 2 -6 15 59 13 71 76 96 12 98 62 81 25 21 66 -18 35 -16 31 -25 74 5 33 -12 23 32 7 40 51 75 65 -7 84 6 87 82 -1 48 -4 78 85 19 22 41 94 55 99 44 38 1 -23 17 -10 24 70 79 47 -22 -17 89 46 52 63 -9 50 95 -8 91 69 -15
82 4 91 55 85 75 17 66 50 36 98 37 8 -19 25 69 -9 7 33 30 9 19 -3 1 32 2 73 -13 76 14 -11 26 43 71 92 -24 -21 96 -8 62 -2 -7 100 52 61 6 80 23 18 11 64 -22 3 65 -4 67 46 -17 99 84 57 63 -25 -5 58 27 47 -6 -15 38 31 77 -18 -23 16 88 24 78 21 28 40 48 34 59 60 13 90 74 53 97 94
81 90 13 19 -1 89 75 86 14 8 15 43 -7 96 83 -10 9 23 36 84 -4 12 93 -16 76 45 5 52 18 80 10 59 4 49 17 69 97 -14 3 40 91 55 42 41 68 100 -19 92 -22 60 -9 50 48 -5 47 -21 78 25 53 29 16 54 51 -17 -20 67 6 1 -15 35 63 82 98 11 -23 2 79 33 -25 58 70 72 46 7 -2 38 -18 57 -6 71 27
-25 83 70 87 -20 85 14 -14 53 69 51 95 24 11 -3 67 77 81 23 54 45 98 20 71 31 19 82 94 63 -13 52 36 27 5 73 -18 6 -2 4 97 3 78 96 74 62 29 64 68 -1 57 91 1 -21 -9 65 -16 25 -11 40 34 76 26 66 48 88 75 60 37 49 86 -8 -12 47 10 35 93 -19 46 -22 92 17 -7 42 16 0 50 -10 59 -15 72 13
5 42 -1 54 -11 30 -3 94 25 59 68 43 -20 -25 50 18 58 73 7 -24 95 41 19 6 78 96 75 93 61 8 38 31 90 40 20 15 57 -23 -12 13 84 55 60 1 52 74 21 77 88 99 70 9 -2 -8 -9 56 37 -18 34 -5 48 71 -17 27 -19 66 97 100 53 51 35 83 98 80 -13 82 -6 86 76 10 -22 91 81 33 72 44 -16 -15 -7 62 23
-3 57 -2 75 -12 51 -13 100 -9 -20 52 46 18 98 87 60 -8 -11 56 19 68 82 -6 45 95 74 -25 33 53 43 37 94 48 -14 55 -16 3 42 23 54 2 12 71 59 83 13 0 61 67 77 -1 72 86 -17 26 80 65 96 27 11 66 99 89 -10 47 93 34 35 -18 -22 20 70 78 -21 90 49 31 97 -5 73 39 8 17 10 15 44 62 91 81 -19 21
96 30 27 54 18 -6 41 52 50 -23 2 72 -11 25 15 57 26 24 -14 -22 -4 46 6 49 76 64 56 35 100 8 -9 32 39 -16 94 92 23 -24 -19 38 98 67 28 87 -10 29 -5 7 31 12 68 4 43 82 69 37 86 44 22 -13 40 74 73 53 3 89 70 19 5 -21 65 51 59 58 91 -18 78 75 -2 -12 20 97 -20 10 33 93 0 -8 88 60 99
64 3 40 -14 -1 100 -15 92 22 98 0 46 90 84 2 75 15 1 -20 94 -21 82 8 -9 51 47 57 9 99 18 29 25 80 50 -2 44 67 85 -25 21 32 -22 27 38 26 -19 88 77 28 87 -18 79 35 20 36 48 96 19 70 69 -6 72 52 -10 6 73 12 68 56 54 42 16 -4 66 55 34 97 39 62 10 30 61 58 24 -24 45 81 86 -11 60 53
3 61 78 18 85 -1 77 69 7 49 95 31 70 40 51 -25 56 -3 79 48 -23 42 93 32 65 13 22 99 30 -13 86 24 38 -20 97 27 35 84 71 45 76 44 -21 96 75 1 66 -24 55 -7 -6 34 -9 -22 67 88 53 -14 73 -11 20 21 89 43 -16 90 16 19 -19 -15 64 17 11 100 41 63 8 91 87 28 15 94 98 74 39 12 37 80 2 47 -12
24 38 -21 85 26 44 27 64 28 56 -16 47 90 -12 48 53 67 65 -23 -7 69 99 -3 71 50 63 59 70 9 76 81 62 52 13 15 86 95 32 -18 -24 1 -19 6 42 82 94 -17 3 18 89 10 19 -6 87 80 -8 30 37 -11 12 -5 2 58 17 93 -10 -4 33 78 41 -25 46 55 91 29 25 -15 -20 -2 43 92 4 5 98 16 68 57 77 40 79 45
76 72 19 21 2 11 42 -16 81 14 -20 93 48 -6 -12 54 -8 -11 -9 91 17 75 40 49 44 4 69 55 6 26 -10 0 68 95 13 -17 58 30 34 92 86 -2 94 97 71 59 80 22 89 24 5 9 82 32 61 41 56 64 -21 16 -23 70 45 -13 7 65 8 -15 51 1 98 -1 18 31 27 47 12 -18 85 73 39 96 78 46 23 84 -4 63 52 57 28
64 80 92 -3 -12 -17 85 52 93 20 54 65 -18 13 32 -2 94 -14 24 -21 15 67 63 100 21 18 3 29 -19 -8 83 68 37 4 47 7 45 86 36 69 49 90 19 -1 81 44 78 27 79 62 75 76 -9 56 99 -11 5 16 88 0 14 96 57 97 46 33 48 61 -25 -13 22 41 35 71 38 -23 1 -24 31 39 28 95 9 60 50 58 -5 55 10 84 82
95 -23 49 82 64 42 38 80 84 -24 78 41 7 43 -20 12 74 31 -13 14 73 34 -12 -11 54 44 27 71 85 21 100 18 32 1 94 47 -22 33 46 97 -25 -4 2 -1 66 57 35 -6 65 89 86 39 16 -2 69 40 10 30 6 -17 88 3 -15 53 17 22 -9 -18 36 -8 13 77 96 98 55 67 93 68 60 63 -3 90 29 11 70 59 92 51 72 0 -16
16 10 80 -8 66 75 22 62 78 96 32 59 93 40 7 20 15 79 3 94 -1 92 34 29 -20 12 13 86 73 24 -21 -7 70 8 95 68 91 -24 17 63 0 5 -9 69 -23 41 53 84 11 14 -6 100 43 26 81 49 55 -3 85 -12 64 33 -22 72 23 -13 60 87 -17 57 98 88 89 28 83 42 45 -4 67 44 99 56 27 52 2 90 46 31 38 58 35
94 88 71 -12 4 95 48 44 97 17 59 78 81 69 18 -13 96 -1 43 15 47 52 27 29 62 2 32 -21 80 68 8 -5 -15 93 82 40 57 26 91 21 83 -10 42 11 -6 36 49 54 30 9 39 1 74 -7 -9 3 -20 24 33 -25 34 77 70 98 37 13 28 5 53 -8 -3 67 7 14 51 -18 87 38 90 20 -22 -17 55 85 66 84 61 12 50 99 56
64 67 9 58 79 20 22 33 -4 47 29 -2 56 40 45 38 0 -8 -25 93 84 27 53 -10 92 -11 17 82 39 55 -23 52 14 16 87 65 25 -1 23 1 5 60 30 85 77 -24 26 37 61 43 63 86 -7 18 28 91 8 78 89 70 81 68 41 -13 -5 100 62 76 98 69 -12 48 36 83 73 49 99 -18 19 31 13 57 -3 21 46 -22 59 95 90 10 24
-8 26 8 91 7 66 68 11 54 72 13 76 40 6 62 43 47 65 45 98 -23 -20 81 -2 46 -10 28 100 78 59 35 -5 -15 -17 64 25 0 2 -11 87 -16 19 82 15 -9 10 -12 -25 75 70 24 31 73 53 89 14 96 -18 42 99 3 94 93 80 -7 30 27 55 18 84 16 41 32 79 1 51 39 44 37 23 83 36 -21 12 67 77 61 -14 -19 60 20
-25 16 83 38 80 1 -1 56 36 51 82 19 75 73 -15 69 28 22 -6 98 -19 87 58 23 64 13 -12 60 40 32 6 33 -21 57 29 37 85 70 39 79 97 50 -13 -23 -2 42 -11 -20 21 46 65 99 41 52 -4 77 54 11 76 78 3 -3 8 47 100 81 94 -10 34 9 -18 2 0 53 86 15 44 89 91 96 26 27 5 24 -9 31 63 10 18 88 -17
44 72 90 30 93 3 27 35 11 -22 81 -21 82 -19 59 95 46 80 17 52 37 18 -24 -14 62 70 79 -16 47 97 1 -23 84 16 -17 -15 91 0 -18 -3 13 21 99 2 51 50 85 49 53 57 9 58 34 88 33 25 15 86 73 55 32 6 10 78 -9 7 20 40 -6 77 65 26 75 -20 60 68 -1 -4 54 -25 12 -11 31 36 4 -7 38 19 -5 5 67
76 24 23 56 82 -12 9 -7 43 31 47 78 -16 67 60 28 -23 1 -13 57 72 98 64 54 46 95 -6 -15 -1 30 65 90 85 6 49 -22 35 34 22 7 -24 80 36 91 26 17 84 88 33 89 41 -21 -25 66 94 -17 38 62 5 83 -3 -5 93 12 -8 8 100 -11 44 -19 11 87 19 55 -20 39 0 50 73 15 51 74 32 13 81 4 10 27 48 25 96
33 7 55 23 -6 -13 48 38 43 76 2 65 90 83 70 35 16 -22 41 -20 -3 24 15 -17 44 39 -19 49 98 59 88 62 45 94 -2 -8 54 92 64 1 97 -5 58 85 87 52 71 56 -9 29 86 91 -23 72 95 78 4 42 8 5 63 73 17 75 100 34 20 77 11 -7 -25 84 3 -1 19 67 74 96 -21 57 30 13 36 31 46 -10 25 -24 0 -14 61
52 46 12 6 15 32 98 92 70 93 -9 84 55 42 41 63 96 20 56 97 69 26 66 88 -14 14 2 16 34 1 21 -16 82 -25 9 10 31 77 53 -7 29 17 43 73 30 0 81 40 48 -6 -21 45 50 57 39 62 74 100 5 13 37 -18 35 7 68 25 -12 8 -20 90 22 44 -24 75 80 85 -23 71 99 95 76 65 -19 86 51 38 -3 33 -1 91 61
-4 70 51 -6 20 89 -17 18 27 4 19 72 52 63 88 31 -2 7 37 60 28 -8 -9 23 -15 17 30 92 -7 32 22 24 -25 98 1 36 13 -22 -3 94 79 71 29 87 83 55 65 58 78 26 -21 43 80 -11 -23 44 -20 -18 91 90 -19 -14 42 5 93 81 2 3 67 21 41 95 57 34 40 53 100 77 45 50 59 86 25 15 8 99 14 -16 85 11 54
8 86 -3 -5 62 -21 -2 -6 20 82 80 83 52 50 85 -15 -7 45 70 53 21 84 28 7 12 -14 61 -24 99 92 98 14 16 38 46 -12 2 32 -25 -9 22 58 13 -23 -11 36 33 39 11 65 89 -16 -22 31 67 81 63 0 95 29 73 47 76 44 -19 15 -17 57 60 54 90 51 93 88 5 10 91 -10 71 37 23 9 75 24 -18 17 42 87 97 59 69
40 56 -21 -7 95 -11 79 -13 15 98 47 60 66 51 37 16 -10 31 76 27 3 -18 13 -23 26 -9 -20 57 90 11 78 0 69 53 62 89 -12 74 77 33 9 46 42 24 67 49 23 99 -5 -14 21 18 32 72 64 54 -19 34 -2 7 8 50 22 29 36 14 61 39 1 80 -16 43 52 59 45 5 82 63 65 20 35 85 2 93 38 91 -24 97 87 41 44
35 13 25 44 65 80 88 51 39 -22 -13 87 -7 98 95 55 41 92 -2 6 57 -14 22 40 -1 70 10 66 63 36 32 4 42 94 18 43 61 74 7 31 76 16 78 -4 46 30 60 84 83 72 97 85 27 59 45 33 -3 -12 -5 1 62 99 71 28 -9 53 -18 -23 77 49 23 17 -21 48 15 79 11 96 -6 69 21 73 89 -19 93 12 -17 82 75 24 14
27 73 19 7 69 -1 46 56 94 50 85 24 61 3 37 47 32 74 36 6 86 -7 45 60 23 31 93 88 70 59 -9 64 13 84 87 5 79 67 96 82 39 -24 38 1 4 10 95 58 92 -22 78 -6 99 83 9 -4 -12 33 44 -17 71 66 17 63 29 42 91 28 48 40 65 54 -19 89 75 97 26 21 -23 -14 -20 52 -3 98 43 100 -10 -16 90 76 62
-21 76 -5 78 99 60 21 8 79 -23 25 62 33 7 16 87 71 91 3 39 63 92 -2 37 81 -14 61 90 -15 -7 31 -25 67 94 -24 50 70 -8 66 57 -22 19 -12 80 55 45 64 51 56 26 98 -6 48 23 20 -20 2 -3 83 43 -1 46 49 4 93 -10 -17 36 84 -13 -9 5 24 42 40 82 30 -11 100 75 86 89 -18 -16 18 15 9 1 97 59 12
97 47 24 40 23 74 -13 67 42 54 -4 -1 59 -5 39 -19 2 65 36 -7 15 64 13 8 4 89 37 6 83 56 69 90 -9 16 19 -23 51 18 70 60 7 55 68 20 -12 28 22 53 -14 14 73 91 99 87 50 10 57 -22 58 82 71 100 -24 -2 0 75 95 31 72 25 11 81 66 92 85 27 -16 49 -6 84 -15 9 5 61 63 33 78 17 -20 52 38
66 81 25 -15 45 98 -1 84 44 59 97 32 91 -3 36 -2 35 86 -22 20 -8 19 12 26 6 99 95 92 71 46 43 -17 31 72 77 -20 53 78 73 -23 88 61 90 23 56 42 50 64 37 4 74 70 55 79 76 100 2 -6 9 57 5 24 49 82 -19 68 80 7 28 89 16 18 21 39 63 58 38 87 65 62 -7 -16 -10 -4 85 -5 11 83 0 33 10
55 69 -16 -20 84 73 -19 -14 42 99 13 96 64 10 45 91 60 83 -10 -8 44 -25 50 -5 19 -18 89 100 85 -3 54 93 -9 1 87 4 35 -1 97 71 36 92 33 18 63 86 9 98 23 16 90 48 76 78 41 88 34 52 30 -17 12 31 -11 79 28 46 8 58 37 80 21 82 66 -13 75 -4 72 51 17 29 -7 94 47 -12 59 40 70 24 67 61 -2
-10 78 94 58 -1 15 51 -4 -21 -23 17 54 56 11 96 59 60 39 38 -22 3 93 29 41 89 33 50 -2 32 73 25 -17 23 74 67 63 -6 5 55 66 47 87 34 2 -19 95 -8 36 30 97 61 82 20 26 12 40 65 91 49 -5 14 35 57 -12 85 86 100 90 -14 92 8 69 99 37 80 44 -3 72 9 10 71 84 -11 28 -20 -15 76 75 22 4 81
68 7 58 -23 45 86 66 42 77 82 95 92 48 93 40 -2 44 88 43 -5 100 -12 11 34 96 56 5 29 -19 91 24 57 9 -18 72 90 -16 12 -17 32 51 18 74 16 71 84 -3 46 64 28 -22 1 21 15 38 -8 99 47 2 -11 59 67 -21 53 27 50 3 41 -13 25 -15 52 -6 98 -1 83 63 -4 0 78 17 55 -24 -25 -10 37 75 13 54 20 36
85 90 47 10 56 -4 5 -22 82 -11 6 78 32 64 46 65 0 26 95 92 -12 -15 23 -14 40 42 1 43 -10 84 -5 63 69 -23 71 7 81 96 12 19 74 58 36 60 37 70 -9 87 22 24 67 61 16 49 25 79 -13 50 68 -25 35 -24 39 52 -19 14 30 -21 41 89 15 27 100 98 75 44 48 99 83 94 77 73 9 80 13 28 -1 31 -3 72 11
72 1 93 57 33 49 5 89 47 35 -9 100 65 81 17 56 75 2 8 20 -5 -3 -4 -15 44 38 16 58 -12 53 64 12 92 52 -2 61 60 97 25 71 59 76 7 50 26 37 36 41 10 -11 99 29 -1 88 74 90 83 30 48 15 13 19 95 62 -18 40 -7 14 96 43 22 -24 -8 46 79 9 98 27 84 66 77 78 87 -14 28 -6 42 31 63 86 39
27 37 8 94 65 -11 46 98 17 -10 62 81 15 -2 24 86 75 -18 -19 42 96 68 64 -25 3 93 22 71 29 47 70 25 -13 89 49 51 41 83 90 53 10 -21 35 -14 54 -20 43 63 95 40 85 -22 -24 32 50 -8 6 78 58 44 99 16 19 56 14 87 4 9 34 100 -15 -9 5 33 79 52 38 66 -12 39 23 7 84 74 31 -6 77 76 72 45 57
65 43 3 89 -21 -4 98 18 67 -23 82 84 83 94 16 -8 50 81 -20 71 62 24 7 39 41 96 -10 -25 63 52 85 4 46 68 36 33 64 56 35 76 87 5 77 93 30 -7 78 48 53 12 60 1 59 80 79 -14 2 86 0 100 51 -5 32 97 -18 74 29 54 8 -19 34 38 72 10 13 40 91 -9 -16 26 25 92 61 -24 27 -17 22 -6 69 -3 49
3 35 86 84 52 -7 10 74 7 34 90 -10 46 9 5 2 23 31 79 100 69 47 93 -15 20 54 11 78 -21 83 63 57 82 -13 40 64 -25 -5 73 -16 15 98 -11 30 28 58 67 99 22 70 -3 26 45 21 85 43 -22 66 -4 75 51 55 14 71 92 4 44 12 42 59 33 81 76 50 17 36 18 24 1 48 -19 27 -20 25 -12 61 96 -2 80 97 16
47 59 34 78 60 4 46 58 -10 52 8 97 82 -11 -21 80 -1 67 50 81 100 20 95 -13 -2 75 38 94 -12 92 73 90 -14 -16 35 54 16 -3 61 14 37 45 0 24 42 91 66 -7 89 70 12 44 69 93 84 72 55 -5 3 40 86 29 -23 39 -6 11 76 51 -9 64 88 43 -8 -4 6 25 85 98 30 -20 41 2 27 31 13 1 -15 17 65 99 28
87 58 79 -6 97 25 -20 24 45 92 56 61 28 91 38 -12 -2 89 53 -3 -1 13 98 -5 64 93 -15 37 44 15 -16 100 34 6 95 55 8 9 18 33 71 12 39 7 96 43 63 32 36 27 41 86 47 85 99 88 65 17 5 46 -19 57 -7 11 23 -14 78 94 67 22 76 66 62 29 -13 59 50 -8 -18 74 19 80 26 20 75 68 -9 70 69 30 60
50 82 44 -12 96 -6 59 -24 46 -13 1 70 -2 -19 -17 -1 -3 92 -11 -20 80 38 86 51 -5 83 -9 31 9 17 15 69 13 4 76 27 78 72 -22 45 5 8 41 12 25 -25 85 -18 14 29 -10 34 28 71 93 68 99 87 77 18 24 -4 56 2 20 19 73 88 16 61 47 -8 10 66 -15 -16 89 79 40 7 91 67 23 43 90 22 42 65 52 35 36
82 74 78 33 7 39 89 97 -4 1 69 71 11 8 -8 55 16 35 -10 67 -2 22 21 29 -11 50 -17 49 25 6 86 37 68 -20 -25 85 48 65 77 32 96 10 -23 73 28 -12 18 92 66 36 81 3 87 27 43 15 9 41 57 70 90 -1 -7 -18 72 34 51 -6 -9 76 45 -5 56 20 0 64 60 95 100 31 12 44 13 -24 58 99 54 -21 -3 17 19
85 -22 62 91 29 3 -10 70 -21 55 -23 94 64 -1 21 79 45 26 47 30 66 46 -12 73 74 25 54 9 37 20 82 76 31 -6 97 53 51 22 52 69 38 42 72 -24 -9 77 -8 92 5 90 35 71 -13 -5 -18 11 99 16 59 28 58 98 -7 19 -14 44 24 8 100 88 39 50 32 49 -20 65 -15 10 63 34 68 81 23 83 48 -2 -17 15 33 18 41
-15 66 8 76 -19 98 -7 87 94 21 54 96 73 -22 89 5 23 18 71 6 37 74 40 -18 -10 20 0 22 -2 83 56 97 58 32 49 69 16 -11 9 28 79 -25 39 75 67 15 -4 42 13 50 45 81 36 92 -12 53 24 -8 12 3 77 -23 88 78 52 25 -1 100 95 68 44 51 93 26 -13 48 -20 64 -24 -9 1 35 -5 2 33 70 63 19 41 17 31
85 95 -2 14 25 -21 -12 -1 70 24 31 16 35 60 13 74 57 3 80 63 94 38 49 93 64 -19 54 -6 -13 61 59 75 19 88 20 -3 62 15 34 51 45 23 -8 -17 11 90 56 66 48 30 87 91 -25 -15 0 82 47 26 21 2 -18 71 83 89 18 52 4 77 -5 100 17 27 12 33 43 46 86 -9 98 36 41 9 -4 99 68 -11 6 -20 -7 5 53
41 95 80 -11 -25 32 79 87 67 31 30 88 -8 49 68 9 44 22 15 61 69 33 16 57 5 54 37 65 -9 46 90 66 2 24 96 29 19 -6 71 74 -10 78 -5 42 21 4 -2 76 43 -1 86 -18 45 85 82 93 64 26 59 11 12 62 35 94 77 -20 84 91 1 -4 63 -13 27 51 0 53 50 -15 55 92 38 81 100 47 23 58 -19 83 98 -24 -21
73 98 26 48 69 94 -7 93 9 47 -25 95 70 28 42 13 68 82 85 97 53 88 83 11 71 40 84 18 80 49 1 34 -9 24 -22 43 -20 51 35 65 86 99 64 100 56 7 20 -15 66 -18 44 25 41 23 52 79 3 6 30 39 17 -21 -2 38 -1 96 -24 -16 19 77 46 -14 90 -19 22 16 87 78 21 31 92 0 63 8 32 67 -10 -3 29 4 62
80 18 40 4 69 10 -22 66 83 46 92 -1 -16 99 88 61 37 90 74 95 -13 77 72 -25 12 98 19 34 14 -20 68 63 84 -12 48 -7 78 15 -17 56 -6 38 17 21 13 -24 86 81 -4 23 -9 0 44 -18 73 93 62 91 85 54 30 55 96 67 6 52 -21 43 76 -10 50 -8 27 11 26 41 39 31 36 70 1 75 49 -15 5 24 32 33 -19 79 45
52 85 10 44 29 84 35 -5 -10 22 -23 7 88 96 18 11 33 1 17 75 -19 82 34 -13 92 89 41 -20 95 30 -22 40 13 5 16 97 27 94 58 91 0 26 87 -18 -17 25 -4 78 63 71 3 49 -9 39 98 80 46 21 20 37 -16 8 -11 -6 81 83 86 12 64 43 14 99 31 76 -12 38 47 -2 77 9 67 32 4 73 -3 61 51 48 42 -1 69
59 41 13 82 56 3 55 95 77 23 -7 18 42 91 28 0 22 9 57 -15 -2 -19 -4 84 90 20 -3 52 50 86 35 4 1 99 58 -10 78 6 -11 26 65 48 70 32 64 98 51 -1 88 97 87 46 94 96 81 47 -9 83 -22 62 66 -23 76 -12 31 53 -16 100 75 68 33 -14 40 72 74 27 36 43 45 5 -5 -25 92 93 -8 54 69 79 21 63 12
79 0 58 -17 51 68 65 64 8 -14 47 82 -23 -10 3 88 86 6 -21 49 25 93 9 45 33 56 90 -18 -8 22 -19 14 70 31 16 21 41 4 97 61 -11 69 94 66 27 7 53 39 89 23 -1 99 42 55 77 -12 30 76 -13 -5 28 19 26 -15 44 62 46 74 72 18 10 52 80 48 15 84 63 -3 2 -9 -16 87 78 36 40 -22 95 57 11 92 -6
40 -10 50 34 55 32 12 44 59 3 5 17 33 24 91 94 51 82 43 20 -3 60 -5 28 26 86 -22 -9 27 89 85 95 54 13 -23 83 4 -20 -14 1 -15 73 16 19 62 70 -18 -21 57 -25 -16 8 74 69 -4 -19 88 98 87 80 -12 56 66 77 90 61 39 96 64 58 -8 37 68 81 71 79 72 100 -6 0 42 75 15 97 63 53 31 -2 10 47 25
-4 23 97 -22 28 18 48 62 65 -25 73 91 2 -6 93 6 22 99 -21 57 85 86 90 11 -14 44 -23 89 24 45 60 100 64 92 98 31 38 -8 46 32 0 -7 14 75 8 -1 13 53 35 -12 -24 21 69 52 12 -9 51 40 83 80 88 96 -20 72 5 34 26 39 74 77 -19 -3 78 82 95 19 49 -18 -11 63 84 50 58 37 17 43 33 7 15 94 36
21 49 16 67 19 45 37 -10 1 -24 35 34 25 88 27 11 7 31 28 86 -18 96 93 40 62 3 -1 87 4 -2 100 57 0 -9 8 -19 15 74 63 68 84 -11 26 -5 97 53 -8 -14 61 39 22 29 65 89 50 99 -23 -15 -3 38 41 69 77 59 91 44 60 17 56 43 -25 -22 54 83 79 24 32 78 33 9 23 80 98 -4 81 6 14 73 64 94 46
7 10 49 55 47 -19 12 -9 15 99 0 37 -14 14 26 -8 54 86 64 -4 23 1 6 88 38 40 92 97 -13 77 -21 72 -3 17 98 29 -22 75 4 -24 25 53 91 3 71 -11 11 -12 -6 43 32 -23 59 30 80 100 41 35 79 87 66 95 5 -25 -10 50 39 16 9 -7 19 34 45 89 8 85 56 20 76 61 51 52 -17 69 74 65 68 36 -2 33 58
97 75 83 5 79 58 23 -24 80 86 52 -17 -2 7 22 16 93 20 56 64 68 18 42 15 -3 67 30 45 41 96 -6 66 54 2 -7 24 3 81 70 -12 8 55 12 39 -18 -13 43 -9 85 40 -14 4 72 35 71 98 -10 -8 34 -11 73 6 28 89 29 57 53 17 59 48 78 46 49 -21 37 31 36 1 -23 61 0 26 27 11 10 33 82 9 13 -19 14
4 88 46 14 52 85 30 -5 -7 97 8 45 36 31 35 17 24 3 86 87 89 6 -15 48 -18 92 -19 33 -1 57 76 41 50 93 74 23 38 -11 44 51 61 60 72 49 -16 67 2 32 82 12 59 18 -25 26 56 9 39 80 78 -20 58 84 62 64 -4 66 -13 -21 98 28 -17 -8 27 15 77 81 75 -22 79 70 -3 10 21 73 -23 -24 37 69 5 65 -2
92 86 -15 76 79 71 51 20 67 -23 96 81 12 -7 69 16 15 78 70 -25 61 1 8 -13 -3 89 -8 41 23 17 100 36 93 3 53 4 39 -19 49 -2 34 27 31 40 57 -1 28 77 87 -16 -4 -22 99 52 -11 56 72 11 59 44 65 98 43 -9 37 47 -24 38 19 60 -17 64 22 95 63 68 42 18 73 58 24 14 5 91 -6 -5 80 -14 55 90 46
77 18 46 22 72 -14 -7 27 57 65 45 6 79 1 31 29 49 98 70 80 30 12 48 3 90 -10 17 84 -19 53 66 61 -23 28 23 16 93 26 58 81 -18 24 63 -9 71 38 20 -4 37 4 -17 21 87 69 25 -2 54 100 62 19 42 -25 75 8 68 64 33 11 10 -8 36 88 -6 -16 56 89 -3 76 73 39 82 9 78 97 44 83 0 50 59 99 -13
44 24 -16 18 -10 45 22 58 94 55 68 77 -18 -8 61 98 13 -3 73 -22 0 46 21 12 37 63 57 79 50 52 80 95 -13 71 96 82 -2 86 -23 2 -12 -14 54 56 3 42 32 17 90 28 25 -1 19 65 64 -19 83 39 16 49 10 47 100 75 70 23 20 51 67 97 36 62 -20 4 43 -25 9 1 33 -17 -4 -7 69 76 41 60 35 38 91 88 85
