9
61 50 40 -6 57 64 30 -15 55 15
47 18 20 -6 11 75 40 60 43 0
62 1 48 39 -1 67 -25 64 28 25
2 10 54 30 58 -16 34 64 43 53
-23 28 16 48 38 -22 -20 44 64 -4
68 65 46 53 -20 -21 51 63 58 -22
29 -3 -14 9 2 66 61 -16 -15 -5
-22 0 50 72 -7 64 39 58 11 68
13 16 -10 34 21 4 60 24 -15 67